PackageLibPath, Version, Priority, Depends, Imports, LinkingTo, Suggests, Enhances, License, License_is_FOSS, License_restricts_use, OS_type, MD5sum, NeedsCompilation, Built, antiword, antiword
C:/Users/root/Documents/R/win-library/4.1, 1.3, NA, NA, sys (>= 2.0), NA, NA, NA, GPL-2, NA, NA, NA, NA, yes, 4.1.2, askpass, askpass
C:/Users/root/Documents/R/win-library/4.1, 1.1, NA, NA, sys (>= 2.1), NA, testthat, NA, MIT + file LICENSE, NA, NA, NA, NA, yes, 4.1.1, assertthat, assertthat
C:/Users/root/Documents/R/win-library/4.1, 0.2.1, NA, NA, tools, NA, "testthat, covr", NA, GPL-3, NA, NA, NA, NA, no, 4.1.1, backports, backports
C:/Users/root/Documents/R/win-library/4.1, 1.4.1, NA, R (>= 3.0.0), NA, NA, NA, NA, GPL-2 | GPL-3, NA, NA, NA, NA, yes, 4.1.2, base64enc, base64enc
C:/Users/root/Documents/R/win-library/4.1, 0.1-3, NA, R (>= 2.9.0), NA, NA, NA, png, GPL-2 | GPL-3, NA, NA, NA, NA, yes, 4.1.1, BH, BH
C:/Users/root/Documents/R/win-library/4.1, 1.75.0-0, NA, NA, NA, NA, NA, NA, BSL-1.0, NA, NA, NA, NA, no, 4.1.1, binman, binman
C:/Users/root/Documents/R/win-library/4.1, 0.1.2, NA, R (>= 3.3), "rappdirs, yaml, httr, jsonlite, xml2, utils, stats, assertthat, semver", NA, "testthat, covr, knitr, rmarkdown", NA, MIT + file LICENSE, NA, NA, NA, NA, no, 4.1.1, bit, bit
C:/Users/root/Documents/R/win-library/4.1, 4.0.4, NA, R (>= 2.9.2), NA, NA, "testthat (>= 0.11.0), roxygen2, knitr, rmarkdown, microbenchmark, bit64 (>= 4.0.0), ff (>= 4.0.0)", NA, GPL-2 | GPL-3, NA, NA, NA, NA, yes, 4.1.1, bit64, bit64
C:/Users/root/Documents/R/win-library/4.1, 4.0.5, NA, "R (>= 3.0.1), bit (>= 4.0.0), utils, methods, stats", NA, NA, NA, NA, GPL-2 | GPL-3, NA, NA, NA, NA, yes, 4.1.1, bitops, bitops
C:/Users/root/Documents/R/win-library/4.1, 1.0-7, NA, NA, NA, NA, NA, NA, GPL (>= 2), NA, NA, NA, NA, yes, 4.1.1, bslib, bslib
C:/Users/root/Documents/R/win-library/4.1, 0.3.1, NA, R (>= 2.10), "grDevices, htmltools (>= 0.5.2), jsonlite, sass (>= 0.4.0), jquerylib (>= 0.1.3), rlang", NA, "shiny (>= 1.6.0), rmarkdown (>= 2.7), thematic, knitr, testthat, withr, rappdirs, curl, magrittr", NA, MIT + file LICENSE, NA, NA, NA, NA, no, 4.1.2, cachem, cachem
C:/Users/root/Documents/R/win-library/4.1, 1.0.6, NA, NA, "rlang, fastmap", NA, testthat, NA, MIT + file LICENSE, NA, NA, NA, NA, yes, 4.1.2, caret, caret
C:/Users/root/Documents/R/win-library/4.1, 6.0-90, NA, "ggplot2, lattice (>= 0.20), R (>= 3.2.0)", "e1071, foreach, grDevices, methods, ModelMetrics (>= 1.2.2.2), nlme, plyr, pROC, recipes (>= 0.1.10), reshape2, stats, stats4, utils, withr (>= 2.0.0)", NA, "BradleyTerry2, covr, Cubist, dplyr, earth (>= 2.2-3), ellipse, fastICA, gam (>= 1.15), ipred, kernlab, klaR, knitr, MASS, Matrix, mda, mgcv, mlbench, MLmetrics, nnet, pamr, party (>= 0.9-99992), pls, proxy, randomForest, RANN, rmarkdown, rpart, spls, subselect, superpc, testthat (>= 0.9.1), themis (>= 0.1.3)", NA, GPL (>= 2), NA, NA, NA, NA, yes, 4.1.2, caTools, caTools
C:/Users/root/Documents/R/win-library/4.1, 1.18.2, NA, R (>= 3.6.0), bitops, NA, "MASS, rpart", NA, GPL-3, NA, NA, NA, NA, yes, 4.1.1, cellranger, cellranger
C:/Users/root/Documents/R/win-library/4.1, 1.1.0, NA, R (>= 3.0.0), "rematch, tibble", NA, "covr, testthat (>= 1.0.0), knitr, rmarkdown", NA, MIT + file LICENSE, NA, NA, NA, NA, no, 4.1.1, checkmate, checkmate
C:/Users/root/Documents/R/win-library/4.1, 2.0.0, NA, R (>= 3.0.0), "backports (>= 1.1.0), utils", NA, "R6, fastmatch, data.table (>= 1.9.8), devtools, ggplot2, knitr, magrittr, microbenchmark, rmarkdown, testthat (>= 0.11.0), tinytest (>= 1.1.0), tibble", NA, BSD_3_clause + file LICENSE, NA, NA, NA, NA, yes, 4.1.2, cli, cli
C:/Users/root/Documents/R/win-library/4.1, 3.0.1, NA, R (>= 2.10), "glue, utils", NA, "callr, covr, grDevices, htmlwidgets, knitr, methods, mockery, prettycode (>= 1.1.0), processx, ps (>= 1.3.4.9000), rlang, rmarkdown, rstudioapi, shiny, testthat, tibble, withr", NA, MIT + file LICENSE, NA, NA, NA, NA, yes, 4.1.1, clipr, clipr
C:/Users/root/Documents/R/win-library/4.1, 0.7.1, NA, NA, utils, NA, "covr, knitr, rmarkdown, rstudioapi (>= 0.5), testthat (>= 2.0.0)", NA, GPL-3, NA, NA, NA, NA, no, 4.1.1, colorspace, colorspace
C:/Users/root/Documents/R/win-library/4.1, 2.0-2, NA, "R (>= 3.0.0), methods", "graphics, grDevices, stats", NA, "datasets, utils, KernSmooth, MASS, kernlab, mvtnorm, vcd, tcltk, shiny, shinyjs, ggplot2, dplyr, scales, grid, png, jpeg, knitr, rmarkdown, RColorBrewer, rcartocolor, scico, viridis, wesanderson", NA, BSD_3_clause + file LICENSE, NA, NA, NA, NA, yes, 4.1.1, commonmark, commonmark
C:/Users/root/Documents/R/win-library/4.1, 1.7, NA, NA, NA, NA, "curl, testthat, xml2", NA, BSD_2_clause + file LICENSE, NA, NA, NA, NA, yes, 4.1.2, corpus, corpus
C:/Users/root/Documents/R/win-library/4.1, 0.10.2, NA, "R (>= 3.3),", "stats, utf8 (>= 1.1.0)", NA, "knitr, rmarkdown, Matrix, testthat", "quanteda, tm", Apache License (== 2.0) | file LICENSE, NA, NA, NA, NA, yes, 4.1.1, corpustools, corpustools
C:/Users/root/Documents/R/win-library/4.1, 0.4.8, NA, R (>= 3.5.0), "methods, wordcloud (>= 2.5), SnowballC, stringi, Rcpp (>= 0.12.12), R6, udpipe (>= 0.8.3), digest, data.table (>= 1.10.4), quanteda (>= 1.5.1), igraph, tokenbrowser (>= 0.1.5), RNewsflow (>= 1.2.1), Matrix (>= 1.2), parallel, pbapply (>= 1.4), rsyntax (>= 0.1.1)", "Rcpp, RcppProgress", "testthat, tm (>= 0.6), topicmodels, knitr, rmarkdown, gender", NA, GPL-3, NA, NA, NA, NA, yes, 4.1.2, cpp11, cpp11
C:/Users/root/Documents/R/win-library/4.1, 0.4.0, NA, NA, NA, NA, "bench, brio, callr, cli, covr, decor, desc, ggplot2, glue, knitr, lobstr, mockery, progress, rmarkdown, scales, Rcpp, testthat, tibble, utils, vctrs, withr", NA, MIT + file LICENSE, NA, NA, NA, NA, no, 4.1.1, crayon, crayon
C:/Users/root/Documents/R/win-library/4.1, 1.4.1, NA, NA, "grDevices, methods, utils", NA, "mockery, rstudioapi, testthat, withr", NA, MIT + file LICENSE, NA, NA, NA, NA, no, 4.1.1, curl, curl
C:/Users/root/Documents/R/win-library/4.1, 4.3.2, NA, R (>= 3.0.0), NA, NA, "spelling, testthat (>= 1.0.0), knitr, jsonlite, rmarkdown, magrittr, httpuv (>= 1.4.4), webutils", NA, MIT + file LICENSE, NA, NA, NA, NA, yes, 4.1.2, data.table, data.table
C:/Users/root/Documents/R/win-library/4.1, 1.14.2, NA, R (>= 3.1.0), methods, NA, "bit64 (>= 4.0.0), bit (>= 4.0.4), curl, R.utils, xts, nanotime, zoo (>= 1.8-1), yaml, knitr, rmarkdown", NA, MPL-2.0 | file LICENSE, NA, NA, NA, NA, yes, 4.1.1, digest, digest
C:/Users/root/Documents/R/win-library/4.1, 0.6.28, NA, R (>= 3.3.0), utils, NA, "tinytest, knitr, rmarkdown, minidown", NA, GPL (>= 2), NA, NA, NA, NA, yes, 4.1.1, dplyr, dplyr
C:/Users/root/Documents/R/win-library/4.1, 1.0.7, NA, R (>= 3.3.0), "ellipsis, generics, glue (>= 1.3.2), lifecycle (>= 1.0.0), magrittr (>= 1.5), methods, R6, rlang (>= 0.4.10), tibble (>= 2.1.3), tidyselect (>= 1.1.0), utils, vctrs (>= 0.3.5), pillar (>= 1.5.1)", NA, "bench, broom, callr, covr, DBI, dbplyr (>= 1.4.3), knitr, Lahman, lobstr, microbenchmark, nycflights13, purrr, rmarkdown, RMySQL, RPostgreSQL, RSQLite, testthat (>= 3.0.2), tidyr, withr", NA, MIT + file LICENSE, NA, NA, NA, NA, yes, 4.1.2, e1071, e1071
C:/Users/root/Documents/R/win-library/4.1, 1.7-9, NA, NA, "graphics, grDevices, class, stats, methods, utils, proxy", NA, "cluster, mlbench, nnet, randomForest, rpart, SparseM, xtable, Matrix, MASS, slam", NA, GPL-2 | GPL-3, NA, NA, NA, NA, yes, 4.1.2, ellipsis, ellipsis
C:/Users/root/Documents/R/win-library/4.1, 0.3.2, NA, R (>= 3.2), rlang (>= 0.3.0), NA, "covr, testthat", NA, MIT + file LICENSE, NA, NA, NA, NA, yes, 4.1.1, evaluate, evaluate
C:/Users/root/Documents/R/win-library/4.1, 0.14, NA, R (>= 3.0.2), methods, NA, "testthat, lattice, ggplot2", NA, MIT + file LICENSE, NA, NA, NA, NA, no, 4.1.2, fansi, fansi
C:/Users/root/Documents/R/win-library/4.1, 0.5.0, NA, R (>= 3.1.0), "grDevices, utils", NA, "unitizer, knitr, rmarkdown", NA, GPL (>= 2), NA, NA, NA, NA, yes, 4.1.1, farver, farver
C:/Users/root/Documents/R/win-library/4.1, 2.1.0, NA, NA, NA, NA, "testthat (>= 2.1.0), covr", NA, MIT + file LICENSE, NA, NA, NA, NA, yes, 4.1.1, fastmap, fastmap
C:/Users/root/Documents/R/win-library/4.1, 1.1.0, NA, NA, NA, NA, testthat (>= 2.1.1), NA, MIT + file LICENSE, NA, NA, NA, NA, yes, 4.1.1, fastmatch, fastmatch
C:/Users/root/Documents/R/win-library/4.1, 1.1-3, NA, R (>= 2.3.0), NA, NA, NA, NA, GPL-2, NA, NA, NA, NA, yes, 4.1.1, fontawesome, fontawesome
C:/Users/root/Documents/R/win-library/4.1, 0.2.2, NA, R (>= 3.3.0), "rlang (>= 0.4.10), htmltools (>= 0.5.1.1)", NA, "covr, knitr, testthat, rsvg", NA, MIT + file LICENSE, NA, NA, NA, NA, no, 4.1.2, foreach, foreach
C:/Users/root/Documents/R/win-library/4.1, 1.5.1, NA, R (>= 2.5.0), "codetools, utils, iterators", NA, "randomForest, doMC, doParallel, testthat, knitr, rmarkdown", NA, Apache License (== 2.0), NA, NA, NA, NA, no, 4.1.2, fs, fs
C:/Users/root/Documents/R/win-library/4.1, 1.5.0, NA, R (>= 3.1), methods, NA, "testthat, covr, pillar (>= 1.0.0), tibble (>= 1.1.0), crayon, rmarkdown, knitr, withr, spelling, vctrs (>= 0.3.0)", NA, GPL-3, NA, NA, NA, NA, yes, 4.1.1, future, future
C:/Users/root/Documents/R/win-library/4.1, 1.23.0, NA, NA, "digest, globals (>= 0.14.0), listenv (>= 0.8.0), parallel, parallelly (>= 1.26.1), tools, utils", NA, "RhpcBLASctl, R.rsp, markdown", NA, LGPL (>= 2.1), NA, NA, NA, NA, no, 4.1.2, future.apply, future.apply
C:/Users/root/Documents/R/win-library/4.1, 1.8.1, NA, "R (>= 3.2.0), future (>= 1.21.0)", "globals (>= 0.14.0), parallel, utils", NA, "datasets, stats, tools, listenv (>= 0.8.0), R.rsp, markdown", NA, GPL (>= 2), NA, NA, NA, NA, no, 4.1.2, generics, generics
C:/Users/root/Documents/R/win-library/4.1, 0.1.0, NA, R (>= 3.1), methods, NA, "covr, pkgload, testthat, tibble", NA, MIT + file LICENSE, NA, NA, NA, NA, no, 4.1.1, ggforce, ggforce
C:/Users/root/Documents/R/win-library/4.1, 0.3.3, NA, "ggplot2 (>= 3.0.0), R (>= 3.3.0)", "Rcpp (>= 0.12.2), grid, scales, MASS, tweenr (>= 0.1.5), gtable, rlang, polyclip, stats, grDevices, tidyselect, withr, utils", "Rcpp, RcppEigen", "sessioninfo, concaveman, deldir, reshape2, units (>= 0.4-6), covr", NA, MIT + file LICENSE, NA, NA, NA, NA, yes, 4.1.1, ggplot2, ggplot2
C:/Users/root/Documents/R/win-library/4.1, 3.3.5, NA, R (>= 3.3), "digest, glue, grDevices, grid, gtable (>= 0.1.1), isoband, MASS, mgcv, rlang (>= 0.4.10), scales (>= 0.5.0), stats, tibble, withr (>= 2.0.0)", NA, "covr, ragg, dplyr, ggplot2movies, hexbin, Hmisc, interp, knitr, lattice, mapproj, maps, maptools, multcomp, munsell, nlme, profvis, quantreg, RColorBrewer, rgeos, rmarkdown, rpart, sf (>= 0.7-3), svglite (>= 1.2.0.9001), testthat (>= 2.1.0), vdiffr (>= 1.0.0), xml2", sp, MIT + file LICENSE, NA, NA, NA, NA, no, 4.1.2, ggraph, ggraph
C:/Users/root/Documents/R/win-library/4.1, 2.0.5, NA, "R (>= 2.10), ggplot2 (>= 3.0.0)", "Rcpp (>= 0.12.2), dplyr, ggforce (>= 0.3.1), grid, igraph (>= 1.0.0), scales, MASS, digest, gtable, ggrepel, utils, stats, viridis, rlang, tidygraph, graphlayouts (>= 0.5.0), withr", Rcpp, "network, knitr, rmarkdown, purrr, tibble, seriation, deldir, gganimate, covr", NA, MIT + file LICENSE, NA, NA, NA, NA, yes, 4.1.1, ggrepel, ggrepel
C:/Users/root/Documents/R/win-library/4.1, 0.9.1, NA, "R (>= 3.0.0), ggplot2 (>= 2.2.0)", "grid, Rcpp, rlang (>= 0.3.0), scales (>= 0.5.0)", Rcpp, "knitr, rmarkdown, testthat, gridExtra, devtools, prettydoc, ggbeeswarm, dplyr, magrittr, readr, stringr", NA, GPL-3 | file LICENSE, NA, NA, NA, NA, yes, 4.1.1, globals, globals
C:/Users/root/Documents/R/win-library/4.1, 0.14.0, NA, R (>= 3.1.2), codetools, NA, NA, NA, LGPL (>= 2.1), NA, NA, NA, NA, no, 4.1.1, glue, glue
C:/Users/root/Documents/R/win-library/4.1, 1.4.2, NA, R (>= 3.2), methods, NA, "testthat, covr, magrittr, crayon, knitr, rmarkdown, DBI, RSQLite, R.utils, forcats, microbenchmark, rprintf, stringr, ggplot2, dplyr, withr, vctrs (>= 0.3.0)", NA, MIT + file LICENSE, NA, NA, NA, NA, yes, 4.1.1, gower, gower
C:/Users/root/Documents/R/win-library/4.1, 0.2.2, NA, NA, NA, NA, "tinytest (>= 0.9.3),", NA, GPL-3, NA, NA, NA, NA, yes, 4.1.1, graphlayouts, graphlayouts
C:/Users/root/Documents/R/win-library/4.1, 0.7.1, NA, R (>= 3.2.0), "igraph, Rcpp", "Rcpp, RcppArmadillo", "oaqc, testthat, ggraph, ggplot2, knitr, rmarkdown", NA, MIT + file LICENSE, NA, NA, NA, NA, yes, 4.1.1, gridExtra, gridExtra
C:/Users/root/Documents/R/win-library/4.1, 2.3, NA, NA, "gtable, grid, grDevices, graphics, utils", NA, "ggplot2, egg, lattice, knitr, testthat", NA, GPL (>= 2), NA, NA, NA, NA, no, 4.1.1, gtable, gtable
C:/Users/root/Documents/R/win-library/4.1, 0.3.0, NA, R (>= 3.0), grid, NA, "covr, testthat, knitr, rmarkdown, ggplot2, profvis", NA, GPL-2, NA, NA, NA, NA, no, 4.1.1, gutenbergr, gutenbergr
C:/Users/root/Documents/R/win-library/4.1, 0.2.1, NA, R (>= 2.10), "dplyr, readr, purrr, urltools, stringr, lazyeval", NA, "knitr, rmarkdown, testthat, tidytext, ggplot2, tidyr, curl", NA, GPL-2, NA, NA, NA, NA, no, 4.1.2, here, here
C:/Users/root/Documents/R/win-library/4.1, 1.0.1, NA, NA, rprojroot (>= 2.0.2), NA, "conflicted, covr, fs, knitr, palmerpenguins, plyr, readr, rlang, rmarkdown, testthat, uuid, withr", NA, MIT + file LICENSE, NA, NA, NA, NA, no, 4.1.2, highr, highr
C:/Users/root/Documents/R/win-library/4.1, 0.9, NA, R (>= 3.2.3), xfun (>= 0.18), NA, "knitr, markdown, testit", NA, GPL, NA, NA, NA, NA, no, 4.1.2, hms, hms
C:/Users/root/Documents/R/win-library/4.1, 1.1.1, NA, NA, "ellipsis (>= 0.3.2), lifecycle, methods, pkgconfig, rlang, vctrs (>= 0.3.8)", NA, "crayon, lubridate, pillar (>= 1.1.0), testthat (>= 3.0.0)", NA, MIT + file LICENSE, NA, NA, NA, NA, no, 4.1.1, htmltools, htmltools
C:/Users/root/Documents/R/win-library/4.1, 0.5.2, NA, R (>= 2.14.1), "utils, digest, grDevices, base64enc, rlang (>= 0.4.10), fastmap", NA, "markdown, testthat, withr, Cairo, ragg, shiny", knitr, GPL (>= 2), NA, NA, NA, NA, yes, 4.1.1, htmlwidgets, htmlwidgets
C:/Users/root/Documents/R/win-library/4.1, 1.5.4, NA, NA, "grDevices, htmltools (>= 0.3), jsonlite (>= 0.9.16), yaml", NA, "knitr (>= 1.8), rmarkdown, testthat", shiny (>= 1.1), MIT + file LICENSE, NA, NA, NA, NA, no, 4.1.1, httpuv, httpuv
C:/Users/root/Documents/R/win-library/4.1, 1.6.4, NA, R (>= 2.15.1), "Rcpp (>= 1.0.7), utils, R6, promises, later (>= 0.8.0)", "Rcpp, later", "testthat, callr, curl, websocket", NA, GPL (>= 2) | file LICENSE, NA, NA, NA, NA, yes, 4.1.2, httr, httr
C:/Users/root/Documents/R/win-library/4.1, 1.4.2, NA, R (>= 3.2), "curl (>= 3.0.0), jsonlite, mime, openssl (>= 0.8), R6", NA, "covr, httpuv, jpeg, knitr, png, readr, rmarkdown, testthat (>= 0.8.0), xml2", NA, MIT + file LICENSE, NA, NA, NA, NA, no, 4.1.1, hunspell, hunspell
C:/Users/root/Documents/R/win-library/4.1, 3.0.1, NA, R (>= 3.0.2), "Rcpp, digest", Rcpp (>= 0.12.12), "spelling, testthat, pdftools, janeaustenr, wordcloud2, knitr, stopwords, rmarkdown", NA, GPL-2 | LGPL-2.1 | MPL-1.1, NA, NA, NA, NA, yes, 4.1.1, igraph, igraph
C:/Users/root/Documents/R/win-library/4.1, 1.2.7, NA, methods, "graphics, grDevices, magrittr, Matrix, pkgconfig (>= 2.0.0), stats, utils", NA, "ape, graph, igraphdata, rgl, scales, stats4, tcltk, testthat, withr, digest", NA, GPL (>= 2), NA, NA, NA, NA, yes, 4.1.1, ipred, ipred
C:/Users/root/Documents/R/win-library/4.1, 0.9-12, NA, R (>= 2.10), "rpart (>= 3.1-8), MASS, survival, nnet, class, prodlim", NA, "mvtnorm, mlbench, TH.data, randomForest, party", NA, GPL (>= 2), NA, NA, NA, NA, yes, 4.1.2, irlba, irlba
C:/Users/root/Documents/R/win-library/4.1, 2.3.5, NA, "R (>= 3.6.2), Matrix", "stats, methods", Matrix, NA, NA, GPL-3, NA, NA, NA, NA, yes, 4.1.2, isoband, isoband
C:/Users/root/Documents/R/win-library/4.1, 0.2.5, NA, NA, "grid, utils", NA, "covr, ggplot2, knitr, magick, microbenchmark, rmarkdown, sf, testthat, xml2", NA, MIT + file LICENSE, NA, NA, NA, NA, yes, 4.1.1, ISOcodes, ISOcodes
C:/Users/root/Documents/R/win-library/4.1, 2021.02.24, NA, R (>= 3.5.0), NA, NA, NA, NA, GPL-2, NA, NA, NA, NA, no, 4.1.1, iterators, iterators
C:/Users/root/Documents/R/win-library/4.1, 1.0.13, NA, "R (>= 2.5.0), utils", NA, NA, "RUnit, foreach", NA, Apache License (== 2.0), NA, NA, NA, NA, no, 4.1.2, janeaustenr, janeaustenr
C:/Users/root/Documents/R/win-library/4.1, 0.1.5, NA, R (>= 3.1.2), NA, NA, "dplyr, testthat", NA, MIT + file LICENSE, NA, NA, NA, NA, no, 4.1.1, jiebaR, jiebaR
C:/Users/root/Documents/R/win-library/4.1, 0.11, NA, "R (>= 3.3), jiebaRD", Rcpp (>= 0.12.1), Rcpp (>= 0.12.1), "knitr,testthat,devtools,rmarkdown,roxygen2", NA, MIT + file LICENSE, NA, NA, NA, NA, yes, 4.1.1, jiebaRD, jiebaRD
C:/Users/root/Documents/R/win-library/4.1, 0.1, NA, NA, NA, NA, jiebaR, NA, MIT + file LICENSE, NA, NA, NA, NA, no, 4.1.1, jquerylib, jquerylib
C:/Users/root/Documents/R/win-library/4.1, 0.1.4, NA, NA, htmltools, NA, testthat, NA, MIT + file LICENSE, NA, NA, NA, NA, no, 4.1.2, jsonlite, jsonlite
C:/Users/root/Documents/R/win-library/4.1, 1.7.2, NA, methods, NA, NA, "httr, curl, plyr, testthat, knitr, rmarkdown, R.rsp, sf", NA, MIT + file LICENSE, NA, NA, NA, NA, yes, 4.1.1, knitr, knitr
C:/Users/root/Documents/R/win-library/4.1, 1.37, NA, R (>= 3.2.3), "evaluate (>= 0.10), highr, methods, stringr (>= 0.6), yaml (>= 2.1.19), xfun (>= 0.27), tools", NA, "markdown, formatR, testit, digest, rgl (>= 0.95.1201), codetools, rmarkdown, htmlwidgets (>= 0.7), webshot, tikzDevice (>= 0.10), tinytex, reticulate (>= 1.4), JuliaCall (>= 0.11.1), magick, png, jpeg, gifski, xml2 (>= 1.2.0), httr, DBI (>= 0.4-1), showtext, tibble, sass, bslib, ragg, styler (>= 1.2.0), targets (>= 0.6.0)", NA, GPL, NA, NA, NA, NA, no, 4.1.2, labeling, labeling
C:/Users/root/Documents/R/win-library/4.1, 0.4.2, NA, NA, "stats, graphics", NA, NA, NA, MIT + file LICENSE | Unlimited, NA, NA, NA, NA, no, 4.1.1, later, later
C:/Users/root/Documents/R/win-library/4.1, 1.3.0, NA, NA, "Rcpp (>= 0.12.9), rlang", Rcpp, "knitr, rmarkdown, testthat (>= 2.1.0)", NA, MIT + file LICENSE, NA, NA, NA, NA, yes, 4.1.2, lava, lava
C:/Users/root/Documents/R/win-library/4.1, 1.6.10, NA, R (>= 3.0), "future.apply, progressr, grDevices, graphics, methods, numDeriv, stats, survival, SQUAREM, utils", NA, "KernSmooth, Matrix, Rgraphviz, data.table, ellipse, fields, geepack, gof (>= 0.9), graph, knitr, bookdown, rmarkdown, igraph (>= 0.6), lava.tobit (>= 0.4.7), lavaSearch2, lme4, magrittr, mets (>= 1.1), nlme, optimx, polycor, quantreg, rgl, R.rsp (>= 0.40), testthat (>= 0.11), visNetwork, zoo", NA, GPL-3, NA, NA, NA, NA, no, 4.1.2, lazyeval, lazyeval
C:/Users/root/Documents/R/win-library/4.1, 0.2.2, NA, R (>= 3.1.0), NA, NA, "knitr, rmarkdown (>= 0.2.65), testthat, covr", NA, GPL-3, NA, NA, NA, NA, yes, 4.1.1, learnr, learnr
C:/Users/root/Documents/R/win-library/4.1, 0.10.1, NA, NA, "utils, parallel, withr, rappdirs, rprojroot, jsonlite, htmltools (>= 0.3.5), htmlwidgets, evaluate, knitr (>= 1.14), markdown, shiny (>= 1.0), rmarkdown (>= 1.12.0), ellipsis (>= 0.2.0.1), checkmate, renv (>= 0.8.0)", NA, "testthat (>= 2.1.0), callr, rlang", NA, Apache License (>= 2.0), NA, NA, NA, NA, no, 4.1.2, lifecycle, lifecycle
C:/Users/root/Documents/R/win-library/4.1, 1.0.1, NA, R (>= 3.3), "glue, rlang (>= 0.4.10)", NA, "covr, crayon, lintr, tidyverse, knitr, rmarkdown, testthat (>= 3.0.1), tools, tibble, vctrs", NA, MIT + file LICENSE, NA, NA, NA, NA, no, 4.1.1, listenv, listenv
C:/Users/root/Documents/R/win-library/4.1, 0.8.0, NA, R (>= 3.1.2), NA, NA, "R.utils, R.rsp, markdown", NA, LGPL (>= 2.1), NA, NA, NA, NA, no, 4.1.2, lubridate, lubridate
C:/Users/root/Documents/R/win-library/4.1, 1.8.0, NA, "methods, R (>= 3.2)", generics, cpp11 (>= 0.2.7), "covr, knitr, testthat (>= 2.1.0), vctrs (>= 0.3.0), rmarkdown", "chron, timeDate, tis, zoo", GPL (>= 2), NA, NA, NA, NA, yes, 4.1.2, magrittr, magrittr
C:/Users/root/Documents/R/win-library/4.1, 2.0.1, NA, NA, NA, NA, "covr, knitr, rlang, rmarkdown, testthat", NA, MIT + file LICENSE, NA, NA, NA, NA, yes, 4.1.1, markdown, markdown
C:/Users/root/Documents/R/win-library/4.1, 1.1, NA, R (>= 2.11.1), "utils, xfun, mime (>= 0.3)", NA, "knitr, RCurl", NA, GPL-2, NA, NA, NA, NA, yes, 4.1.2, mime, mime
C:/Users/root/Documents/R/win-library/4.1, 0.12, NA, NA, tools, NA, NA, NA, GPL, NA, NA, NA, NA, yes, 4.1.1, ModelMetrics, ModelMetrics
C:/Users/root/Documents/R/win-library/4.1, 1.2.2.2, NA, R (>= 3.2.2), "Rcpp, data.table", Rcpp, testthat, NA, GPL (>= 2), NA, NA, NA, NA, yes, 4.1.2, modeltools, modeltools
C:/Users/root/Documents/R/win-library/4.1, 0.2-23, NA, "stats, stats4", methods, NA, NA, NA, GPL-2, NA, NA, NA, NA, no, 4.1.1, munsell, munsell
C:/Users/root/Documents/R/win-library/4.1, 0.5.0, NA, NA, "colorspace, methods", NA, "ggplot2, testthat", NA, MIT + file LICENSE, NA, NA, NA, NA, no, 4.1.1, ndjson, ndjson
C:/Users/root/Documents/R/win-library/4.1, 0.8.0, NA, R (>= 3.2.0), "Rcpp, data.table, tibble", Rcpp, "tinytest, covr", NA, MIT + file LICENSE, NA, NA, NA, NA, yes, 4.1.2, NLP, NLP
C:/Users/root/Documents/R/win-library/4.1, 0.2-1, NA, R (>= 3.2.0), utils, NA, NA, "udpipe, spacyr, cleanNLP", GPL-3, NA, NA, NA, NA, no, 4.1.1, numDeriv, numDeriv
C:/Users/root/Documents/R/win-library/4.1, 2016.8-1.1, NA, R (>= 2.11.1), NA, NA, NA, NA, GPL-2, NA, NA, NA, NA, no, 4.1.1, openssl, openssl
C:/Users/root/Documents/R/win-library/4.1, 1.4.5, NA, NA, askpass, NA, "testthat (>= 2.1.0), digest, knitr, rmarkdown, jsonlite, jose, sodium", NA, MIT + file LICENSE, NA, NA, NA, NA, yes, 4.1.1, packrat, packrat
C:/Users/root/Documents/R/win-library/4.1, 0.7.0, NA, R (>= 3.0.0), "tools, utils", NA, "testthat (>= 3.0.0), devtools, httr, knitr, rmarkdown", NA, GPL-2, NA, NA, NA, NA, no, 4.1.1, parallelly, parallelly
C:/Users/root/Documents/R/win-library/4.1, 1.30.0, NA, NA, "parallel, tools, utils", NA, NA, NA, LGPL (>= 2.1), NA, NA, NA, NA, no, 4.1.2, pbapply, pbapply
C:/Users/root/Documents/R/win-library/4.1, 1.5-0, NA, R (>= 3.2.0), parallel, NA, shiny, NA, GPL-2, NA, NA, NA, NA, no, 4.1.2, pdftools, pdftools
C:/Users/root/Documents/R/win-library/4.1, 3.0.1, NA, NA, "Rcpp (>= 0.12.12), qpdf", Rcpp, "jpeg, png, webp, tesseract, testthat", NA, MIT + file LICENSE, NA, NA, NA, NA, yes, 4.1.2, pillar, pillar
C:/Users/root/Documents/R/win-library/4.1, 1.6.4, NA, NA, "cli, crayon (>= 1.3.4), ellipsis (>= 0.3.2), fansi, lifecycle, rlang (>= 0.3.0), utf8 (>= 1.1.0), utils, vctrs (>= 0.3.8)", NA, "bit64, debugme, DiagrammeR, dplyr, formattable, ggplot2, knitr, lubridate, nycflights13, palmerpenguins, rmarkdown, scales, stringi, survival, testthat (>= 3.0.2), tibble, units (>= 0.7.2), withr", NA, MIT + file LICENSE, NA, NA, NA, NA, no, 4.1.1, pkgconfig, pkgconfig
C:/Users/root/Documents/R/win-library/4.1, 2.0.3, NA, NA, utils, NA, "covr, testthat, disposables (>= 1.0.3)", NA, MIT + file LICENSE, NA, NA, NA, NA, no, 4.1.1, plyr, plyr
C:/Users/root/Documents/R/win-library/4.1, 1.8.6, NA, R (>= 3.1.0), Rcpp (>= 0.11.0), Rcpp, "abind, covr, doParallel, foreach, iterators, itertools, tcltk, testthat", NA, MIT + file LICENSE, NA, NA, NA, NA, yes, 4.1.1, png, png
C:/Users/root/Documents/R/win-library/4.1, 0.1-7, NA, R (>= 2.9.0), NA, NA, NA, NA, GPL-2 | GPL-3, NA, NA, NA, NA, yes, 4.1.1, polyclip, polyclip
C:/Users/root/Documents/R/win-library/4.1, 1.10-0, NA, R (>= 3.0.0), NA, NA, NA, NA, BSL, NA, NA, NA, NA, yes, 4.1.1, prettyunits, prettyunits
C:/Users/root/Documents/R/win-library/4.1, 1.1.1, NA, NA, NA, NA, "codetools, covr, testthat", NA, MIT + file LICENSE, NA, NA, NA, NA, no, 4.1.1, pROC, pROC
C:/Users/root/Documents/R/win-library/4.1, 1.18.0, NA, R (>= 2.14), "methods, plyr, Rcpp (>= 0.11.1)", Rcpp, "microbenchmark, tcltk, MASS, logcondens, doParallel, testthat, vdiffr, ggplot2", NA, GPL (>= 3), NA, NA, NA, NA, yes, 4.1.2, processx, processx
C:/Users/root/Documents/R/win-library/4.1, 3.5.2, NA, NA, "ps (>= 1.2.0), R6, utils", NA, "callr (>= 3.2.0), cli, codetools, covr, curl, debugme, parallel, testthat, withr", NA, MIT + file LICENSE, NA, NA, NA, NA, yes, 4.1.1, prodlim, prodlim
C:/Users/root/Documents/R/win-library/4.1, 2019.11.13, NA, R (>= 2.9.0), "Rcpp (>= 0.11.5), stats, grDevices, graphics, survival, KernSmooth, lava", Rcpp, NA, NA, GPL (>= 2), NA, NA, NA, NA, yes, 4.1.2, profvis, profvis
C:/Users/root/Documents/R/win-library/4.1, 0.3.7, NA, R (>= 3.0), "htmlwidgets (>= 0.3.2), stringr", NA, "knitr, ggplot2, rmarkdown, testthat, devtools, shiny, htmltools", NA, GPL-3 | file LICENSE, NA, NA, NA, NA, yes, 4.1.2, progress, progress
C:/Users/root/Documents/R/win-library/4.1, 1.2.2, NA, NA, "hms, prettyunits, R6, crayon", NA, "Rcpp, testthat, withr", NA, MIT + file LICENSE, NA, NA, NA, NA, no, 4.1.1, progressr, progressr
C:/Users/root/Documents/R/win-library/4.1, 0.10.0, NA, R (>= 3.5.0), "digest, utils", NA, "graphics, tcltk, beepr, crayon, pbmcapply, progress, purrr, foreach, plyr, doFuture, future, future.apply, furrr, rstudioapi, shiny, commonmark, base64enc, tools", NA, GPL (>= 3), NA, NA, NA, NA, no, 4.1.2, promises, promises
C:/Users/root/Documents/R/win-library/4.1, 1.2.0.1, NA, NA, "R6, Rcpp, later, rlang, stats, magrittr", "later, Rcpp", "testthat, future (>= 1.21.0), fastmap (>= 1.1.0), purrr, knitr, rmarkdown, vembedr, spelling", NA, MIT + file LICENSE, NA, NA, NA, NA, yes, 4.1.2, proxy, proxy
C:/Users/root/Documents/R/win-library/4.1, 0.4-26, NA, R (>= 3.4.0), "stats, utils", NA, cba, NA, GPL-2, NA, NA, NA, NA, yes, 4.1.2, ps, ps
C:/Users/root/Documents/R/win-library/4.1, 1.6.0, NA, R (>= 3.1), utils, NA, "callr, covr, curl, pingr, processx (>= 3.1.0), R6, rlang, testthat, tibble", NA, MIT + file LICENSE, NA, NA, NA, NA, yes, 4.1.1, purrr, purrr
C:/Users/root/Documents/R/win-library/4.1, 0.3.4, NA, R (>= 3.2), "magrittr (>= 1.5), rlang (>= 0.3.1)", NA, "covr, crayon, dplyr (>= 0.7.8), knitr, rmarkdown, testthat, tibble, tidyselect", NA, GPL-3 | file LICENSE, NA, NA, NA, NA, yes, 4.1.1, qpdf, qpdf
C:/Users/root/Documents/R/win-library/4.1, 1.1, NA, NA, "Rcpp, askpass, curl", Rcpp, testthat, NA, Apache License 2.0, NA, NA, NA, NA, yes, 4.1.2, quanteda, quanteda
C:/Users/root/Documents/R/win-library/4.1, 3.2.0, NA, "R (>= 3.5.0), methods", "fastmatch, magrittr, Matrix (>= 1.2), Rcpp (>= 0.12.12), RcppParallel, SnowballC, stopwords, stringi, xml2, yaml", "Rcpp, RcppParallel, RcppArmadillo (>= 0.7.600.1.0)", "rmarkdown, spelling, testthat, formatR, tm (>= 0.6), tokenizers, knitr, lda, lsa, dplyr, purrr, quanteda.textmodels, quanteda.textstats, quanteda.textplots, RColorBrewer, slam, spacyr, stm, text2vec, topicmodels, jsonlite, quanteda, tibble, tidytext, xtable, ggplot2", NA, GPL-3, NA, NA, NA, NA, yes, 4.1.2, R6, R6
C:/Users/root/Documents/R/win-library/4.1, 2.5.1, NA, R (>= 3.0), NA, NA, "testthat, pryr", NA, MIT + file LICENSE, NA, NA, NA, NA, no, 4.1.1, randomForest, randomForest
C:/Users/root/Documents/R/win-library/4.1, 4.6-14, NA, "R (>= 3.2.2), stats", NA, NA, "RColorBrewer, MASS", NA, GPL (>= 2), NA, NA, NA, NA, yes, 4.1.2, rappdirs, rappdirs
C:/Users/root/Documents/R/win-library/4.1, 0.3.3, NA, R (>= 3.2), NA, NA, "roxygen2, testthat (>= 3.0.0), covr, withr", NA, MIT + file LICENSE, NA, NA, NA, NA, yes, 4.1.1, RColorBrewer, RColorBrewer
C:/Users/root/Documents/R/win-library/4.1, 1.1-2, NA, R (>= 2.0.0), NA, NA, NA, NA, Apache License 2.0, NA, NA, NA, NA, no, 4.1.1, Rcpp, Rcpp
C:/Users/root/Documents/R/win-library/4.1, 1.0.7, NA, NA, "methods, utils", NA, "tinytest, inline, rbenchmark, pkgKitten (>= 0.1.2)", NA, GPL (>= 2), NA, NA, NA, NA, yes, 4.1.1, RcppArmadillo, RcppArmadillo
C:/Users/root/Documents/R/win-library/4.1, 0.10.7.0.0, NA, R (>= 3.3.0), "Rcpp (>= 0.11.0), stats, utils, methods", Rcpp, "tinytest, Matrix (>= 1.3.0), pkgKitten, reticulate, slam", NA, GPL (>= 2), NA, NA, NA, NA, yes, 4.1.1, RcppEigen, RcppEigen
C:/Users/root/Documents/R/win-library/4.1, 0.3.3.9.1, NA, NA, "Matrix (>= 1.1-0), Rcpp (>= 0.11.0), stats, utils", Rcpp, "inline, tinytest, pkgKitten, microbenchmark", NA, GPL (>= 2) | file LICENSE, NA, NA, NA, NA, yes, 4.1.1, RcppParallel, RcppParallel
C:/Users/root/Documents/R/win-library/4.1, 5.1.4, NA, R (>= 3.0.2), NA, NA, "Rcpp, RUnit, knitr, rmarkdown", NA, GPL (>= 2), NA, NA, NA, NA, yes, 4.1.1, RcppProgress, RcppProgress
C:/Users/root/Documents/R/win-library/4.1, 0.4.2, NA, NA, NA, NA, "RcppArmadillo, devtools, roxygen2, testthat", NA, GPL (>= 3), NA, NA, NA, NA, no, 4.1.2, RCurl, RCurl
C:/Users/root/Documents/R/win-library/4.1, 1.98-1.5, NA, "R (>= 3.4.0), methods", bitops, NA, XML, NA, BSD_3_clause + file LICENSE, NA, NA, NA, NA, yes, 4.1.1, readODS, readODS
C:/Users/root/Documents/R/win-library/4.1, 1.7.0, NA, NA, "xml2 (>= 1.3.2), cellranger, readr (>= 1.2.1), stringi, utils", NA, "dplyr, testthat, datasets, covr, knitr, rmarkdown", NA, GPL-3, NA, NA, NA, NA, no, 4.1.2, readr, readr
C:/Users/root/Documents/R/win-library/4.1, 2.0.2, NA, R (>= 3.1), "cli, clipr, crayon, hms (>= 0.4.1), methods, rlang, R6, tibble, vroom (>= 1.5.4), utils, lifecycle (>= 0.2.0)", "cpp11, tzdb (>= 0.1.1)", "covr, curl, dplyr, knitr, rmarkdown, spelling, stringi, testthat, tzdb (>= 0.1.1), waldo, withr, xml2", NA, MIT + file LICENSE, NA, NA, NA, NA, yes, 4.1.1, readtext, readtext
C:/Users/root/Documents/R/win-library/4.1, 0.81, NA, R (>= 3.6), "antiword, data.table, digest, httr, jsonlite (>= 0.9.10), pdftools, readODS (>= 1.7.0), readxl, streamR, stringi, striprtf, tibble, xml2, utils", NA, "knitr, pkgload, rmarkdown, quanteda (>= 3.0), testthat", NA, GPL-3, NA, NA, NA, NA, no, 4.1.2, readxl, readxl
C:/Users/root/Documents/R/win-library/4.1, 1.3.1, NA, NA, "cellranger, Rcpp (>= 0.12.18), tibble (>= 1.3.1), utils", "progress, Rcpp", "covr, knitr, rmarkdown, rprojroot (>= 1.1), testthat", NA, GPL-3, NA, NA, NA, NA, yes, 4.1.2, recipes, recipes
C:/Users/root/Documents/R/win-library/4.1, 0.1.17, NA, "dplyr, R (>= 3.1)", "ellipsis, generics (>= 0.1.0), glue, gower, ipred (>= 0.9-12), lifecycle, lubridate, magrittr, Matrix, purrr (>= 0.2.3), rlang (>= 0.4.0), stats, tibble, tidyr (>= 1.0.0), tidyselect (>= 1.1.0), timeDate, utils, vctrs, withr", NA, "covr, ddalpha, dimRed (>= 0.2.2), fastICA, ggplot2, igraph, kernlab, knitr, modeldata, parsnip (>= 0.1.7), RANN, RcppRoll, rmarkdown, rpart, rsample, RSpectra, testthat (>= 3.0.0), workflows, xml2", NA, MIT + file LICENSE, NA, NA, NA, NA, no, 4.1.2, rematch, rematch
C:/Users/root/Documents/R/win-library/4.1, 1.0.1, NA, NA, NA, NA, "covr, testthat", NA, MIT + file LICENSE, NA, NA, NA, NA, no, 4.1.1, renv, renv
C:/Users/root/Documents/R/win-library/4.1, 0.14.0, NA, NA, utils, NA, "R6, BiocManager, cli, covr, devtools, knitr, miniUI, packrat, remotes, reticulate, rmarkdown, rstudioapi, shiny, testthat, uuid, yaml", NA, MIT + file LICENSE, NA, NA, NA, NA, no, 4.1.2, reshape2, reshape2
C:/Users/root/Documents/R/win-library/4.1, 1.4.4, NA, R (>= 3.1), "plyr (>= 1.8.1), Rcpp, stringr", Rcpp, "covr, lattice, testthat (>= 0.8.0)", NA, MIT + file LICENSE, NA, NA, NA, NA, yes, 4.1.2, reticulate, reticulate
C:/Users/root/Documents/R/win-library/4.1, 1.22, NA, R (>= 3.0), "Matrix, Rcpp (>= 0.12.7), graphics, here, jsonlite, methods, png, rappdirs, utils, withr", Rcpp, "callr, knitr, rlang, rmarkdown, testthat", NA, Apache License 2.0, NA, NA, NA, NA, yes, 4.1.2, rJava, rJava
C:/Users/root/Documents/R/win-library/4.1, 1.0-5, NA, "R (>= 3.6.0), methods", NA, NA, NA, NA, LGPL-2.1, NA, NA, NA, NA, yes, 4.1.1, rjson, rjson
C:/Users/root/Documents/R/win-library/4.1, 0.2.20, NA, R (>= 3.1.0), NA, NA, NA, NA, GPL-2, NA, NA, NA, NA, yes, 4.1.1, rlang, rlang
C:/Users/root/Documents/R/win-library/4.1, 0.4.12, NA, R (>= 3.3.0), utils, NA, "cli, covr, crayon, glue, magrittr, methods, pak, pillar, rmarkdown, testthat (>= 3.0.0), vctrs (>= 0.2.3), withr", winch, MIT + file LICENSE, NA, NA, NA, NA, yes, 4.1.1, rmarkdown, rmarkdown
C:/Users/root/Documents/R/win-library/4.1, 2.11, NA, R (>= 3.0), "tools, utils, knitr (>= 1.22), yaml (>= 2.1.19), htmltools (>= 0.3.5), evaluate (>= 0.13), jsonlite, tinytex (>= 0.31), xfun (>= 0.21), jquerylib, methods, stringr (>= 1.2.0)", NA, "shiny (>= 1.6.0), tufte, testthat (>= 3.0.0), digest, dygraphs, vctrs, tibble, fs, rsconnect, withr (>= 2.4.2), bslib (>= 0.2.5.1), sass (>= 0.4.0)", NA, GPL-3, NA, NA, NA, NA, no, 4.1.2, RNewsflow, RNewsflow
C:/Users/root/Documents/R/win-library/4.1, 1.2.6, NA, "R (>= 3.2.0), igraph, tm, Matrix (>= 1.2)", "stringi, scales, wordcloud, data.table (>= 1.10.4), methods, quanteda, Rcpp (>= 0.12.12)", "Rcpp, RcppEigen, RcppProgress", "knitr, rmarkdown", NA, GPL-3, NA, NA, NA, NA, yes, 4.1.2, rprojroot, rprojroot
C:/Users/root/Documents/R/win-library/4.1, 2.0.2, NA, R (>= 3.0.0), NA, NA, "covr, knitr, lifecycle, mockr, rmarkdown, testthat (>= 3.0.0), withr", NA, MIT + file LICENSE, NA, NA, NA, NA, no, 4.1.2, rsconnect, rsconnect
C:/Users/root/Documents/R/win-library/4.1, 0.8.25, NA, R (>= 3.0.0), "curl, digest, jsonlite, openssl, packrat (>= 0.6), rstudioapi (>= 0.5), tools, yaml (>= 2.1.5)", NA, "RCurl, callr, httpuv, knitr, plumber (>= 0.3.2), reticulate, rmarkdown (>= 1.1), shiny, sourcetools, testthat, xtable", NA, GPL-2, NA, NA, NA, NA, no, 4.1.2, RSelenium, RSelenium
C:/Users/root/Documents/R/win-library/4.1, 1.7.7, NA, R (>= 3.0.0), "XML, methods, caTools, tools, utils, openssl, httr, wdman(>= 0.2.2), binman", NA, "testthat, knitr, Rcompression, covr, rmarkdown", NA, AGPL-3, NA, NA, NA, NA, no, 4.1.1, rstudioapi, rstudioapi
C:/Users/root/Documents/R/win-library/4.1, 0.13, NA, NA, NA, NA, "testthat, knitr, rmarkdown, clipr", NA, MIT + file LICENSE, NA, NA, NA, NA, no, 4.1.2, rsyntax, rsyntax
C:/Users/root/Documents/R/win-library/4.1, 0.1.2, NA, R (>= 3.2.0), "igraph, tidyselect, methods, stringi, digest, rlang, magrittr, tokenbrowser, base64enc, png, data.table (>= 1.11.8)", NA, testthat, NA, GPL-3, NA, NA, NA, NA, no, 4.1.2, rvest, rvest
C:/Users/root/Documents/R/win-library/4.1, 1.0.2, NA, R (>= 3.2), "httr (>= 0.5), lifecycle (>= 1.0.0), magrittr, rlang (>= 0.4.10), selectr, tibble, xml2 (>= 1.3)", NA, "covr, glue, knitr, readr, rmarkdown, repurrrsive, spelling, stringi (>= 0.3.1), testthat (>= 3.0.2), webfakes", NA, MIT + file LICENSE, NA, NA, NA, NA, no, 4.1.1, sass, sass
C:/Users/root/Documents/R/win-library/4.1, 0.4.0, NA, NA, "fs, rlang (>= 0.4.10), htmltools (>= 0.5.1), R6, rappdirs", NA, "testthat, knitr, rmarkdown, withr, shiny, curl", NA, MIT + file LICENSE, NA, NA, NA, NA, yes, 4.1.2, scales, scales
C:/Users/root/Documents/R/win-library/4.1, 1.1.1, NA, R (>= 3.2), "farver (>= 2.0.3), labeling, lifecycle, munsell (>= 0.5), R6, RColorBrewer, viridisLite", NA, "bit64, covr, dichromat, ggplot2, hms (>= 0.5.0), testthat (>= 2.1.0)", NA, MIT + file LICENSE, NA, NA, NA, NA, no, 4.1.1, selectr, selectr
C:/Users/root/Documents/R/win-library/4.1, 0.4-2, NA, R (>= 3.0), "methods, stringr, R6", NA, "testthat, XML, xml2", NA, BSD_3_clause + file LICENCE, NA, NA, NA, NA, no, 4.1.1, semver, semver
C:/Users/root/Documents/R/win-library/4.1, 0.2.0, NA, NA, "Rcpp (>= 0.12.8), assertthat, utils", Rcpp, "testthat, covr, knitr, rmarkdown", NA, MIT + file LICENSE, NA, NA, NA, NA, yes, 4.1.1, shiny, shiny
C:/Users/root/Documents/R/win-library/4.1, 1.7.1, NA, "R (>= 3.0.2), methods", "utils, grDevices, httpuv (>= 1.5.2), mime (>= 0.3), jsonlite (>= 0.9.16), xtable, fontawesome (>= 0.2.1), htmltools (>= 0.5.2), R6 (>= 2.0), sourcetools, later (>= 1.0.0), promises (>= 1.1.0), tools, crayon, rlang (>= 0.4.10), fastmap (>= 1.1.0), withr, commonmark (>= 1.7), glue (>= 1.3.2), bslib (>= 0.3.0), cachem, ellipsis, lifecycle (>= 0.2.0)", NA, "datasets, Cairo (>= 1.5-5), testthat (>= 3.0.0), knitr (>= 1.6), markdown, rmarkdown, ggplot2, reactlog (>= 1.0.0), magrittr, shinytest (>= 1.4.0.9003), yaml, future, dygraphs, ragg, showtext, sass", NA, GPL-3 | file LICENSE, NA, NA, NA, NA, no, 4.1.2, slam, slam
C:/Users/root/Documents/R/win-library/4.1, 0.1-48, NA, R (>= 3.4.0), stats, NA, NA, "Matrix, SparseM, spam", GPL-2, NA, NA, NA, NA, yes, 4.1.1, SnowballC, SnowballC
C:/Users/root/Documents/R/win-library/4.1, 0.7.0, NA, NA, NA, NA, NA, NA, BSD_3_clause + file LICENSE, NA, NA, NA, NA, yes, 4.1.1, sourcetools, sourcetools
C:/Users/root/Documents/R/win-library/4.1, 0.1.7, NA, R (>= 3.0.2), NA, NA, testthat, NA, MIT + file LICENSE, NA, NA, NA, NA, yes, 4.1.2, spacyr, spacyr
C:/Users/root/Documents/R/win-library/4.1, 1.2.1, NA, "R (>= 3.0.0), methods", "data.table, reticulate (>= 1.6)", NA, "dplyr, knitr, quanteda, R.rsp, rmarkdown, spelling, testthat, tidytext, tibble", NA, GPL-3, NA, NA, NA, NA, no, 4.1.2, SQUAREM, SQUAREM
C:/Users/root/Documents/R/win-library/4.1, 2021.1, NA, R (>= 3.0), NA, NA, setRNG, NA, GPL (>= 2), NA, NA, NA, NA, no, 4.1.1, stopwords, stopwords
C:/Users/root/Documents/R/win-library/4.1, 2.2, NA, R (>= 2.10), ISOcodes, NA, "covr, lintr, quanteda, spelling, testthat", NA, MIT + file LICENSE, NA, NA, NA, NA, no, 4.1.1, streamR, streamR
C:/Users/root/Documents/R/win-library/4.1, 0.4.5, NA, "R (>= 2.12.0), RCurl, rjson, ndjson", NA, NA, ROAuth (>= 0.9.0), NA, GPL-2, NA, NA, NA, NA, no, 4.1.2, stringi, stringi
C:/Users/root/Documents/R/win-library/4.1, 1.7.4, NA, R (>= 3.1), "tools, utils, stats", NA, NA, NA, file LICENSE, yes, NA, NA, NA, yes, 4.1.1, stringr, stringr
C:/Users/root/Documents/R/win-library/4.1, 1.4.0, NA, R (>= 3.1), "glue (>= 1.2.0), magrittr, stringi (>= 1.1.7)", NA, "covr, htmltools, htmlwidgets, knitr, rmarkdown, testthat", NA, GPL-2 | file LICENSE, NA, NA, NA, NA, no, 4.1.1, striprtf, striprtf
C:/Users/root/Documents/R/win-library/4.1, 0.5.3, NA, R (>= 3.0), "magrittr, Rcpp, stringr, utils", Rcpp, testthat, NA, MIT + file LICENSE, NA, NA, NA, NA, yes, 4.1.2, sys, sys
C:/Users/root/Documents/R/win-library/4.1, 3.4, NA, NA, NA, NA, "unix (>= 1.4), spelling, testthat", NA, MIT + file LICENSE, NA, NA, NA, NA, yes, 4.1.1, textdata, textdata
C:/Users/root/Documents/R/win-library/4.1, 0.4.1, NA, NA, "fs, readr, tibble, rappdirs", NA, "knitr, rmarkdown, testthat (>= 2.1.0), covr", NA, MIT + file LICENSE, NA, NA, NA, NA, no, 4.1.2, tibble, tibble
C:/Users/root/Documents/R/win-library/4.1, 3.1.5, NA, R (>= 3.1.0), "ellipsis (>= 0.3.2), fansi (>= 0.4.0), lifecycle (>= 1.0.0), magrittr, methods, pillar (>= 1.6.2), pkgconfig, rlang (>= 0.4.3), utils, vctrs (>= 0.3.8)", NA, "bench, bit64, blob, brio, callr, cli, covr, crayon (>= 1.3.4), DiagrammeR, dplyr, evaluate, formattable, ggplot2, hms, htmltools, knitr, lubridate, mockr, nycflights13, pkgbuild, pkgload, purrr, rmarkdown, stringi, testthat (>= 3.0.2), tidyr, withr", NA, MIT + file LICENSE, NA, NA, NA, NA, yes, 4.1.1, tidygraph, tidygraph
C:/Users/root/Documents/R/win-library/4.1, 1.2.0, NA, NA, "tibble, dplyr (>= 0.8.5), igraph, magrittr, utils, rlang, R6, Rcpp, tools, stats, tidyr, pillar", Rcpp, "network, data.tree, ape, graph, methods, testthat, covr, seriation, netrankr, influenceR, NetSwan", NA, MIT + file LICENSE, NA, NA, NA, NA, yes, 4.1.1, tidyr, tidyr
C:/Users/root/Documents/R/win-library/4.1, 1.1.4, NA, R (>= 3.1), "dplyr (>= 0.8.2), ellipsis (>= 0.1.0), glue, lifecycle, magrittr, purrr, rlang, tibble (>= 2.1.1), tidyselect (>= 1.1.0), utils, vctrs (>= 0.3.6)", cpp11 (>= 0.2.6), "covr, data.table, jsonlite, knitr, readr, repurrrsive (>= 1.0.0), rmarkdown, testthat (>= 3.0.0)", NA, MIT + file LICENSE, NA, NA, NA, NA, yes, 4.1.2, tidyselect, tidyselect
C:/Users/root/Documents/R/win-library/4.1, 1.1.1, NA, R (>= 3.2), "ellipsis, glue (>= 1.3.0), purrr (>= 0.3.2), rlang (>= 0.4.6), vctrs (>= 0.3.0)", NA, "covr, crayon, dplyr, knitr, magrittr, rmarkdown, testthat (>= 2.3.0), tibble (>= 2.1.3), withr", NA, MIT + file LICENSE, NA, NA, NA, NA, yes, 4.1.1, tidytext, tidytext
C:/Users/root/Documents/R/win-library/4.1, 0.3.2, NA, R (>= 2.10), "dplyr, generics, hunspell, janeaustenr, lifecycle, Matrix, methods, purrr (>= 0.1.1), rlang (>= 0.4.10), stringr, tibble, tokenizers, vctrs", NA, "broom, covr, data.table, ggplot2, knitr, mallet, NLP, quanteda, readr, reshape2, rmarkdown, scales, stm, stopwords, testthat (>= 2.1.0), textdata, tidyr, tm, topicmodels, vdiffr, wordcloud, XML", NA, MIT + file LICENSE, NA, NA, NA, NA, no, 4.1.1, timeDate, timeDate
C:/Users/root/Documents/R/win-library/4.1, 3043.102, NA, "R (>= 2.15.1), graphics, utils, stats, methods", NA, NA, "date, RUnit", NA, GPL (>= 2), NA, NA, NA, NA, no, 4.1.1, tinytex, tinytex
C:/Users/root/Documents/R/win-library/4.1, 0.36, NA, NA, xfun (>= 0.29), NA, "testit, rstudioapi", NA, MIT + file LICENSE, NA, NA, NA, NA, no, 4.1.1, tm, tm
C:/Users/root/Documents/R/win-library/4.1, 0.7-8, NA, "R (>= 3.2.0), NLP (>= 0.2-0)", "Rcpp, parallel, slam (>= 0.1-37), stats, tools, utils, graphics, xml2", "BH, Rcpp", "antiword, filehash, methods, pdftools, Rcampdf, Rgraphviz, Rpoppler, SnowballC, testthat, tm.lexicon.GeneralInquirer", NA, GPL-3, NA, NA, NA, NA, yes, 4.1.1, tmcn, tmcn
C:/Users/root/Documents/R/win-library/4.1, 0.2-13, NA, "R (>= 3.0.0), utils", NA, NA, tm, NA, LGPL, NA, NA, NA, NA, yes, 4.1.1, tokenbrowser, tokenbrowser
C:/Users/root/Documents/R/win-library/4.1, 0.1.5, NA, R (>= 2.10), "methods, Rcpp, stringi", Rcpp, testthat, NA, GPL-3, NA, NA, NA, NA, yes, 4.1.2, tokenizers, tokenizers
C:/Users/root/Documents/R/win-library/4.1, 0.2.1, NA, R (>= 3.1.3), "stringi (>= 1.0.1), Rcpp (>= 0.12.3), SnowballC (>= 0.5.1)", Rcpp, "covr, knitr, rmarkdown, stopwords (>= 0.9.0), testthat", NA, MIT + file LICENSE, NA, NA, NA, NA, yes, 4.1.1, topicmodels, topicmodels
C:/Users/root/Documents/R/win-library/4.1, 0.2-12, NA, R (>= 2.15.0), "stats4, methods, modeltools, slam, tm (>= 0.6)", NA, "lasso2, lattice, lda, OAIHarvester, SnowballC, corpus.JSS.papers", NA, GPL-2, NA, NA, NA, NA, yes, 4.1.2, triebeard, triebeard
C:/Users/root/Documents/R/win-library/4.1, 0.3.0, NA, NA, Rcpp, Rcpp, "knitr, rmarkdown, testthat", NA, MIT + file LICENSE, NA, NA, NA, NA, yes, 4.1.1, tweenr, tweenr
C:/Users/root/Documents/R/win-library/4.1, 1.0.2, NA, R (>= 3.2.0), "Rcpp (>= 0.12.3), grDevices, farver, magrittr, rlang", Rcpp, "testthat, covr", NA, MIT + file LICENSE, NA, NA, NA, NA, yes, 4.1.1, tzdb, tzdb
C:/Users/root/Documents/R/win-library/4.1, 0.1.2, NA, R (>= 3.3), NA, cpp11 (>= 0.2.7), "covr, testthat (>= 3.0.0)", NA, MIT + file LICENSE, NA, NA, NA, NA, yes, 4.1.1, udpipe, udpipe
C:/Users/root/Documents/R/win-library/4.1, 0.8.8, NA, R (>= 2.10), "Rcpp (>= 0.11.5), data.table (>= 1.9.6), Matrix, methods, stats", Rcpp, "knitr, rmarkdown, topicmodels, lattice, parallel", NA, MPL-2.0, NA, NA, NA, NA, yes, 4.1.2, urltools, urltools
C:/Users/root/Documents/R/win-library/4.1, 1.7.3, NA, R (>= 2.10), "Rcpp, methods, triebeard", Rcpp, "testthat, knitr", NA, MIT + file LICENSE, NA, NA, NA, NA, yes, 4.1.1, utf8, utf8
C:/Users/root/Documents/R/win-library/4.1, 1.2.2, NA, R (>= 2.10), NA, NA, "cli, covr, knitr, rlang, rmarkdown, testthat (>= 3.0.0), withr", NA, Apache License (== 2.0) | file LICENSE, NA, NA, NA, NA, yes, 4.1.1, vctrs, vctrs
C:/Users/root/Documents/R/win-library/4.1, 0.3.8, NA, R (>= 3.3), "ellipsis (>= 0.2.0), glue, rlang (>= 0.4.10)", NA, "bit64, covr, crayon, dplyr (>= 0.8.5), generics, knitr, pillar (>= 1.4.4), pkgdown, rmarkdown, testthat (>= 2.3.0), tibble, withr, xml2, waldo (>= 0.2.0), zeallot", NA, MIT + file LICENSE, NA, NA, NA, NA, yes, 4.1.1, viridis, viridis
C:/Users/root/Documents/R/win-library/4.1, 0.6.2, NA, "R (>= 2.10), viridisLite (>= 0.4.0)", "stats, ggplot2 (>= 1.0.1), gridExtra", NA, "hexbin (>= 1.27.0), scales, MASS, knitr, dichromat, colorspace, raster, rasterVis, httr, mapproj, vdiffr, svglite (>= 1.2.0), testthat, covr, rmarkdown, rgdal, maps", NA, MIT + file LICENSE, NA, NA, NA, NA, no, 4.1.1, viridisLite, viridisLite
C:/Users/root/Documents/R/win-library/4.1, 0.4.0, NA, R (>= 2.10), NA, NA, "hexbin (>= 1.27.0), ggplot2 (>= 1.0.1), testthat, covr", NA, MIT + file LICENSE, NA, NA, NA, NA, no, 4.1.1, vroom, vroom
C:/Users/root/Documents/R/win-library/4.1, 1.5.5, NA, R (>= 3.1), "bit64, crayon, cli, glue, hms, lifecycle, methods, rlang (>= 0.4.2), stats, tibble (>= 2.0.0), tzdb (>= 0.1.1), vctrs (>= 0.2.0), tidyselect, withr", "progress (>= 1.2.1), cpp11 (>= 0.2.0), tzdb (>= 0.1.1)", "archive, bench (>= 1.1.0), covr, curl, dplyr, forcats, fs, ggplot2, knitr, patchwork, prettyunits, purrr, rmarkdown, rstudioapi, scales, spelling, testthat (>= 2.1.0), tidyr, waldo, xml2", NA, MIT + file LICENSE, NA, NA, NA, NA, yes, 4.1.1, wdman, wdman
C:/Users/root/Documents/R/win-library/4.1, 0.2.5, NA, R (>= 3.2), "binman, assertthat, processx, yaml, semver(>= 0.2.0), utils", NA, "testthat, covr, knitr, rmarkdown", NA, MIT + file LICENSE, NA, NA, NA, NA, no, 4.1.1, withr, withr
C:/Users/root/Documents/R/win-library/4.1, 2.4.2, NA, R (>= 3.2.0), "graphics, grDevices, stats", NA, "covr, DBI, knitr, lattice, methods, rmarkdown, RSQLite, testthat (>= 2.1.0)", NA, MIT + file LICENSE, NA, NA, NA, NA, no, 4.1.1, wordcloud, wordcloud
C:/Users/root/Documents/R/win-library/4.1, 2.6, NA, "methods, RColorBrewer", Rcpp (>= 0.9.4), Rcpp, "tm (>= 0.6), slam", NA, LGPL-2.1, NA, NA, NA, NA, yes, 4.1.2, wordcloud2, wordcloud2
C:/Users/root/Documents/R/win-library/4.1, 0.2.1, NA, R (>= 3.1.0), "htmlwidgets, base64enc, grDevices, graphics", NA, "knitr, rmarkdown, webshot", shiny (>= 0.12), GPL-2, NA, NA, NA, NA, no, 4.1.1, xfun, xfun
C:/Users/root/Documents/R/win-library/4.1, 0.29, NA, NA, "stats, tools", NA, "testit, parallel, codetools, rstudioapi, tinytex (>= 0.30), mime, markdown, knitr, htmltools, remotes, pak, rhub, renv, curl, jsonlite, rmarkdown", NA, MIT + file LICENSE, NA, NA, NA, NA, yes, 4.1.2, xlsx, xlsx
C:/Users/root/Documents/R/win-library/4.1, 0.6.5, NA, NA, "rJava, xlsxjars, grDevices, utils", NA, "rprojroot, testthat, covr, tibble, knitr, rmarkdown", NA, GPL-3, NA, NA, NA, NA, no, 4.1.1, xlsxjars, xlsxjars
C:/Users/root/Documents/R/win-library/4.1, 0.6.1, NA, rJava, NA, NA, NA, NA, GPL-3, NA, NA, NA, NA, no, 4.1.1, XML, XML
C:/Users/root/Documents/R/win-library/4.1, 3.99-0.8, NA, "R (>= 4.0.0), methods, utils", NA, NA, "bitops, RCurl", NA, BSD_3_clause + file LICENSE, NA, NA, NA, NA, yes, 4.1.1, xml2, xml2
C:/Users/root/Documents/R/win-library/4.1, 1.3.2, NA, R (>= 3.1.0), methods, NA, "covr, curl, httr, knitr, magrittr, mockery, rmarkdown, testthat (>= 2.1.0)", NA, GPL (>= 2), NA, NA, NA, NA, yes, 4.1.1, xtable, xtable
C:/Users/root/Documents/R/win-library/4.1, 1.8-4, NA, R (>= 2.10.0), "stats, utils", NA, "knitr, plm, zoo, survival", NA, GPL (>= 2), NA, NA, NA, NA, no, 4.1.2, yaml, yaml
C:/Users/root/Documents/R/win-library/4.1, 2.2.1, NA, NA, NA, NA, RUnit, NA, BSD_3_clause + file LICENSE, NA, NA, NA, NA, yes, 4.1.1, base, base
C:/Program Files/R/R-4.1.1/library, 4.1.1, base, NA, NA, NA, methods, NA, Part of R 4.1.1, NA, NA, NA, NA, NA, 4.1.1, boot, boot
C:/Program Files/R/R-4.1.1/library, 1.3-28, recommended, "R (>= 3.0.0), graphics, stats", NA, NA, "MASS, survival", NA, Unlimited, NA, NA, NA, NA, no, 4.1.1, class, class
C:/Program Files/R/R-4.1.1/library, 7.3-19, recommended, "R (>= 3.0.0), stats, utils", MASS, NA, NA, NA, GPL-2 | GPL-3, NA, NA, NA, NA, yes, 4.1.1, cluster, cluster
C:/Program Files/R/R-4.1.1/library, 2.1.2, recommended, R (>= 3.4.0), "graphics, grDevices, stats, utils", NA, "MASS, Matrix", NA, GPL (>= 2), NA, NA, NA, NA, yes, 4.1.1, codetools, codetools
C:/Program Files/R/R-4.1.1/library, 0.2-18, recommended, R (>= 2.1), NA, NA, NA, NA, GPL, NA, NA, NA, NA, no, 4.1.1, compiler, compiler
C:/Program Files/R/R-4.1.1/library, 4.1.1, base, NA, NA, NA, NA, NA, Part of R 4.1.1, NA, NA, NA, NA, NA, 4.1.1, datasets, datasets
C:/Program Files/R/R-4.1.1/library, 4.1.1, base, NA, NA, NA, NA, NA, Part of R 4.1.1, NA, NA, NA, NA, NA, 4.1.1, foreign, foreign
C:/Program Files/R/R-4.1.1/library, 0.8-81, recommended, R (>= 4.0.0), "methods, utils, stats", NA, NA, NA, GPL (>= 2), NA, NA, NA, NA, yes, 4.1.1, graphics, graphics
C:/Program Files/R/R-4.1.1/library, 4.1.1, base, NA, grDevices, NA, NA, NA, Part of R 4.1.1, NA, NA, NA, NA, yes, 4.1.1, grDevices, grDevices
C:/Program Files/R/R-4.1.1/library, 4.1.1, base, NA, NA, NA, KernSmooth, NA, Part of R 4.1.1, NA, NA, NA, NA, yes, 4.1.1, grid, grid
C:/Program Files/R/R-4.1.1/library, 4.1.1, base, NA, "grDevices, utils", NA, NA, NA, Part of R 4.1.1, NA, NA, NA, NA, yes, 4.1.1, KernSmooth, KernSmooth
C:/Program Files/R/R-4.1.1/library, 2.23-20, recommended, "R (>= 2.5.0), stats", NA, NA, "MASS, carData", NA, Unlimited, NA, NA, NA, NA, yes, 4.1.1, lattice, lattice
C:/Program Files/R/R-4.1.1/library, 0.20-44, recommended, R (>= 3.0.0), "grid, grDevices, graphics, stats, utils", NA, "KernSmooth, MASS, latticeExtra", chron, GPL (>= 2), NA, NA, NA, NA, yes, 4.1.1, MASS, MASS
C:/Program Files/R/R-4.1.1/library, 7.3-54, recommended, "R (>= 3.3.0), grDevices, graphics, stats, utils", methods, NA, "lattice, nlme, nnet, survival", NA, GPL-2 | GPL-3, NA, NA, NA, NA, yes, 4.1.1, Matrix, Matrix
C:/Program Files/R/R-4.1.1/library, 1.3-4, recommended, R (>= 3.5.0), "methods, graphics, grid, stats, utils, lattice", NA, "expm, MASS", "MatrixModels, graph, SparseM, sfsmisc, igraph, maptools, sp, spdep", GPL (>= 2) | file LICENCE, NA, NA, NA, NA, yes, 4.1.1, methods, methods
C:/Program Files/R/R-4.1.1/library, 4.1.1, base, NA, "utils, stats", NA, codetools, NA, Part of R 4.1.1, NA, NA, NA, NA, yes, 4.1.1, mgcv, mgcv
C:/Program Files/R/R-4.1.1/library, 1.8-36, recommended, "R (>= 3.6.0), nlme (>= 3.1-64)", "methods, stats, graphics, Matrix, splines, utils", NA, "parallel, survival, MASS", NA, GPL (>= 2), NA, NA, NA, NA, yes, 4.1.1, nlme, nlme
C:/Program Files/R/R-4.1.1/library, 3.1-152, recommended, R (>= 3.4.0), "graphics, stats, utils, lattice", NA, "Hmisc, MASS", NA, GPL (>= 2) | file LICENCE, NA, NA, NA, NA, yes, 4.1.1, nnet, nnet
C:/Program Files/R/R-4.1.1/library, 7.3-16, recommended, "R (>= 3.0.0), stats, utils", NA, NA, MASS, NA, GPL-2 | GPL-3, NA, NA, NA, NA, yes, 4.1.1, parallel, parallel
C:/Program Files/R/R-4.1.1/library, 4.1.1, base, NA, "tools, compiler", NA, methods, "snow, nws, Rmpi", Part of R 4.1.1, NA, NA, NA, NA, yes, 4.1.1, rpart, rpart
C:/Program Files/R/R-4.1.1/library, 4.1-15, recommended, "R (>= 2.15.0), graphics, stats, grDevices", NA, NA, survival, NA, GPL-2 | GPL-3, NA, NA, NA, NA, yes, 4.1.1, spatial, spatial
C:/Program Files/R/R-4.1.1/library, 7.3-14, recommended, "R (>= 3.0.0), graphics, stats, utils", NA, NA, MASS, NA, GPL-2 | GPL-3, NA, NA, NA, NA, yes, 4.1.1, splines, splines
C:/Program Files/R/R-4.1.1/library, 4.1.1, base, NA, "graphics, stats", NA, "Matrix, methods", NA, Part of R 4.1.1, NA, NA, NA, NA, yes, 4.1.1, stats, stats
C:/Program Files/R/R-4.1.1/library, 4.1.1, base, NA, "utils, grDevices, graphics", NA, "MASS, Matrix, SuppDists, methods, stats4", NA, Part of R 4.1.1, NA, NA, NA, NA, yes, 4.1.1, stats4, stats4
C:/Program Files/R/R-4.1.1/library, 4.1.1, base, NA, "graphics, methods, stats", NA, NA, NA, Part of R 4.1.1, NA, NA, NA, NA, NA, 4.1.1, survival, survival
C:/Program Files/R/R-4.1.1/library, 3.2-11, recommended, R (>= 3.5.0), "graphics, Matrix, methods, splines, stats, utils", NA, NA, NA, LGPL (>= 2), NA, NA, NA, NA, yes, 4.1.1, tcltk, tcltk
C:/Program Files/R/R-4.1.1/library, 4.1.1, base, NA, utils, NA, NA, NA, Part of R 4.1.1, NA, NA, NA, NA, yes, 4.1.1, tools, tools
C:/Program Files/R/R-4.1.1/library, 4.1.1, base, NA, NA, NA, "codetools, methods, xml2, curl, commonmark", NA, Part of R 4.1.1, NA, NA, NA, NA, yes, 4.1.1, translations, translations
C:/Program Files/R/R-4.1.1/library, 4.1.1, NA, NA, NA, NA, NA, NA, Part of R 4.1.1, NA, NA, NA, NA, NA, 4.1.1, utils, utils
C:/Program Files/R/R-4.1.1/library, 4.1.1, base, NA, NA, NA, "methods, xml2, commonmark", NA, Part of R 4.1.1, NA, NA, NA, NA, yes, 4.1.1, "Showing 1 to 222 of 222 entries, 16 total columns", 